\relax 
\@writefile{toc}{\contentsline {section}{\numberline {一、}问题重述}{2}}
\@writefile{toc}{\contentsline {subsection}{\numberline {1\tmspace  +\thinmuskip {.1667em}.\tmspace  +\thinmuskip {.1667em}1}问题的提出}{2}}
\@writefile{toc}{\contentsline {section}{\numberline {二、}模型的假设}{2}}
\@writefile{toc}{\contentsline {section}{\numberline {三、}符号说明}{3}}
\@writefile{toc}{\contentsline {section}{\numberline {四、}模型分析}{3}}
\@writefile{toc}{\contentsline {subsection}{\numberline {4\tmspace  +\thinmuskip {.1667em}.\tmspace  +\thinmuskip {.1667em}1}总体模型架构}{3}}
\@writefile{lot}{\contentsline {table}{\numberline {1}{\ignorespaces 评估尺度衡量表\relax }}{4}}
\providecommand*\caption@xref[2]{\@setref\relax\@undefined{#1}}
\newlabel{my-label}{{1}{4}}
\@writefile{lot}{\contentsline {table}{\numberline {2}{\ignorespaces 城市发展水平框架\relax }}{4}}
\newlabel{my-label}{{2}{4}}
\@writefile{toc}{\contentsline {subsubsection}{\numberline {4\tmspace  +\thinmuskip {.1667em}.\tmspace  +\thinmuskip {.1667em}1\tmspace  +\thinmuskip {.1667em}.\tmspace  +\thinmuskip {.1667em}1}城市发展前景}{5}}
\@writefile{toc}{\contentsline {subsubsection}{\numberline {4\tmspace  +\thinmuskip {.1667em}.\tmspace  +\thinmuskip {.1667em}1\tmspace  +\thinmuskip {.1667em}.\tmspace  +\thinmuskip {.1667em}2}收入水平}{5}}
\@writefile{toc}{\contentsline {subsubsection}{\numberline {4\tmspace  +\thinmuskip {.1667em}.\tmspace  +\thinmuskip {.1667em}1\tmspace  +\thinmuskip {.1667em}.\tmspace  +\thinmuskip {.1667em}3}环境因素}{5}}
\@writefile{toc}{\contentsline {section}{\numberline {五、}模型求解}{6}}
\@writefile{toc}{\contentsline {subsection}{\numberline {5\tmspace  +\thinmuskip {.1667em}.\tmspace  +\thinmuskip {.1667em}1}问题1求解}{6}}
\@writefile{toc}{\contentsline {subsubsection}{\numberline {5\tmspace  +\thinmuskip {.1667em}.\tmspace  +\thinmuskip {.1667em}1\tmspace  +\thinmuskip {.1667em}.\tmspace  +\thinmuskip {.1667em}1}问题求解}{6}}
\@writefile{lot}{\contentsline {table}{\numberline {3}{\ignorespaces 措施对某一因子的影响程度量化表\relax }}{7}}
\newlabel{my-label}{{3}{7}}
\@writefile{lot}{\contentsline {table}{\numberline {4}{\ignorespaces 措施对于的影响因子与权重的衡量\relax }}{7}}
\newlabel{此处的表格}{{4}{7}}
\@writefile{lof}{\contentsline {figure}{\numberline {1}{\ignorespaces A中元素的频数直方图\relax }}{8}}
\newlabel{img}{{1}{8}}
\@writefile{toc}{\contentsline {subsubsection}{\numberline {5\tmspace  +\thinmuskip {.1667em}.\tmspace  +\thinmuskip {.1667em}1\tmspace  +\thinmuskip {.1667em}.\tmspace  +\thinmuskip {.1667em}2}模型检验}{8}}
\@writefile{lot}{\contentsline {table}{\numberline {5}{\ignorespaces 对A1的判断矩阵\relax }}{9}}
\newlabel{my-label}{{5}{9}}
\@writefile{toc}{\contentsline {subsection}{\numberline {5\tmspace  +\thinmuskip {.1667em}.\tmspace  +\thinmuskip {.1667em}2}问题2求解}{9}}
\@writefile{toc}{\contentsline {subsubsection}{\numberline {5\tmspace  +\thinmuskip {.1667em}.\tmspace  +\thinmuskip {.1667em}2\tmspace  +\thinmuskip {.1667em}.\tmspace  +\thinmuskip {.1667em}1}问题求解}{9}}
\@writefile{lot}{\contentsline {table}{\numberline {6}{\ignorespaces 对A2的判断矩阵\relax }}{10}}
\newlabel{my-label}{{6}{10}}
\@writefile{lot}{\contentsline {table}{\numberline {7}{\ignorespaces 对A3的判断矩阵\relax }}{10}}
\newlabel{my-label}{{7}{10}}
\@writefile{lot}{\contentsline {table}{\numberline {8}{\ignorespaces 对B14的判断矩阵\relax }}{10}}
\newlabel{my-label}{{8}{10}}
\@writefile{lot}{\contentsline {table}{\numberline {9}{\ignorespaces 对B17的判断矩阵\relax }}{11}}
\newlabel{my-label}{{9}{11}}
\@writefile{toc}{\contentsline {subsubsection}{\numberline {5\tmspace  +\thinmuskip {.1667em}.\tmspace  +\thinmuskip {.1667em}2\tmspace  +\thinmuskip {.1667em}.\tmspace  +\thinmuskip {.1667em}2}模型检验}{11}}
\@writefile{toc}{\contentsline {subsubsection}{\numberline {5\tmspace  +\thinmuskip {.1667em}.\tmspace  +\thinmuskip {.1667em}2\tmspace  +\thinmuskip {.1667em}.\tmspace  +\thinmuskip {.1667em}3}具体人才分析}{11}}
\@writefile{lot}{\contentsline {table}{\numberline {10}{\ignorespaces 全国主要城市人才吸引水平得分表\relax }}{12}}
\newlabel{my-label}{{10}{12}}
\@writefile{lot}{\contentsline {table}{\numberline {11}{\ignorespaces 四大行业在主要三个城市对人才吸引力水平表\relax }}{13}}
\newlabel{my-label}{{11}{13}}
\@writefile{lof}{\contentsline {figure}{\numberline {2}{\ignorespaces 房地产行业人才吸引力图\relax }}{13}}
\newlabel{img}{{2}{13}}
\@writefile{lof}{\contentsline {figure}{\numberline {3}{\ignorespaces 工业人才吸引力图\relax }}{14}}
\newlabel{img}{{3}{14}}
\@writefile{lof}{\contentsline {figure}{\numberline {4}{\ignorespaces 金融业人才吸引力图\relax }}{14}}
\newlabel{img}{{4}{14}}
\@writefile{lof}{\contentsline {figure}{\numberline {5}{\ignorespaces 信息与传输技术行业人才吸引力图\relax }}{15}}
\newlabel{img}{{5}{15}}
\@writefile{toc}{\contentsline {subsection}{\numberline {5\tmspace  +\thinmuskip {.1667em}.\tmspace  +\thinmuskip {.1667em}3}问题3求解}{15}}
\@writefile{toc}{\contentsline {subsubsection}{\numberline {5\tmspace  +\thinmuskip {.1667em}.\tmspace  +\thinmuskip {.1667em}3\tmspace  +\thinmuskip {.1667em}.\tmspace  +\thinmuskip {.1667em}1}问题求解}{15}}
\@writefile{toc}{\contentsline {subsubsection}{\numberline {5\tmspace  +\thinmuskip {.1667em}.\tmspace  +\thinmuskip {.1667em}3\tmspace  +\thinmuskip {.1667em}.\tmspace  +\thinmuskip {.1667em}2}模型优化}{15}}
\@writefile{lot}{\contentsline {table}{\numberline {12}{\ignorespaces 南山区吸引力表\relax }}{16}}
\newlabel{my-label}{{12}{16}}
\@writefile{lot}{\contentsline {table}{\numberline {13}{\ignorespaces 南山区每年得分（以深圳为基准100计算）\relax }}{16}}
\newlabel{my-label}{{13}{16}}
\@writefile{lof}{\contentsline {figure}{\numberline {6}{\ignorespaces 房地产行业人才吸引力图\relax }}{17}}
\newlabel{img}{{6}{17}}
\@writefile{lof}{\contentsline {figure}{\numberline {7}{\ignorespaces 房地产行业人才吸引力图\relax }}{17}}
\newlabel{img}{{7}{17}}
\bibcite{bib:one}{1}
\bibcite{bib:two}{2}
\bibcite{bib:three}{3}
\bibcite{bib:four}{4}
\bibcite{bib:five}{5}
\@writefile{toc}{\contentsline {section}{\numberline {附录A}计算$\lambda $和w等的函数 -- MATLAB源程序}{19}}
\@writefile{toc}{\contentsline {section}{\numberline {附录B}获得频数直方图代码 -- MATLAB源程序}{19}}
\ttl@finishall
