<?xml version="1.0" encoding="UTF-8"?>
<symbol version="7" name="MyMC14495">
    <symboltype>BLOCK</symboltype>
    <timestamp>2017-11-2T6:43:33</timestamp>
    <pin polarity="Input" x="0" y="-480" name="LE" />
    <pin polarity="Input" x="0" y="-400" name="D2" />
    <pin polarity="Input" x="0" y="-320" name="D3" />
    <pin polarity="Input" x="0" y="-240" name="D0" />
    <pin polarity="Input" x="0" y="-160" name="D1" />
    <pin polarity="Input" x="0" y="-80" name="point" />
    <pin polarity="Output" x="384" y="-480" name="g" />
    <pin polarity="Output" x="384" y="-416" name="f" />
    <pin polarity="Output" x="384" y="-352" name="e" />
    <pin polarity="Output" x="384" y="-288" name="d" />
    <pin polarity="Output" x="384" y="-224" name="c" />
    <pin polarity="Output" x="384" y="-160" name="b" />
    <pin polarity="Output" x="384" y="-96" name="a" />
    <pin polarity="Output" x="384" y="-32" name="p" />
    <graph>
        <rect width="256" x="64" y="-512" height="512" />
        <attrtext style="alignment:BCENTER;fontsize:56;fontname:Arial" attrname="SymbolName" x="192" y="-520" type="symbol" />
        <attrtext style="fontsize:24;fontname:Arial" attrname="PinName" x="72" y="-480" type="pin LE" />
        <line x2="0" y1="-480" y2="-480" x1="64" />
        <attrtext style="fontsize:24;fontname:Arial" attrname="PinName" x="72" y="-400" type="pin D2" />
        <line x2="0" y1="-400" y2="-400" x1="64" />
        <attrtext style="fontsize:24;fontname:Arial" attrname="PinName" x="72" y="-320" type="pin D3" />
        <line x2="0" y1="-320" y2="-320" x1="64" />
        <attrtext style="fontsize:24;fontname:Arial" attrname="PinName" x="72" y="-240" type="pin D0" />
        <line x2="0" y1="-240" y2="-240" x1="64" />
        <attrtext style="fontsize:24;fontname:Arial" attrname="PinName" x="72" y="-160" type="pin D1" />
        <line x2="0" y1="-160" y2="-160" x1="64" />
        <attrtext style="fontsize:24;fontname:Arial" attrname="PinName" x="72" y="-80" type="pin point" />
        <line x2="0" y1="-80" y2="-80" x1="64" />
        <attrtext style="alignment:RIGHT;fontsize:24;fontname:Arial" attrname="PinName" x="312" y="-480" type="pin g" />
        <line x2="384" y1="-480" y2="-480" x1="320" />
        <attrtext style="alignment:RIGHT;fontsize:24;fontname:Arial" attrname="PinName" x="312" y="-416" type="pin f" />
        <line x2="384" y1="-416" y2="-416" x1="320" />
        <attrtext style="alignment:RIGHT;fontsize:24;fontname:Arial" attrname="PinName" x="312" y="-352" type="pin e" />
        <line x2="384" y1="-352" y2="-352" x1="320" />
        <attrtext style="alignment:RIGHT;fontsize:24;fontname:Arial" attrname="PinName" x="312" y="-288" type="pin d" />
        <line x2="384" y1="-288" y2="-288" x1="320" />
        <attrtext style="alignment:RIGHT;fontsize:24;fontname:Arial" attrname="PinName" x="312" y="-224" type="pin c" />
        <line x2="384" y1="-224" y2="-224" x1="320" />
        <attrtext style="alignment:RIGHT;fontsize:24;fontname:Arial" attrname="PinName" x="312" y="-160" type="pin b" />
        <line x2="384" y1="-160" y2="-160" x1="320" />
        <attrtext style="alignment:RIGHT;fontsize:24;fontname:Arial" attrname="PinName" x="312" y="-96" type="pin a" />
        <line x2="384" y1="-96" y2="-96" x1="320" />
        <attrtext style="alignment:RIGHT;fontsize:24;fontname:Arial" attrname="PinName" x="312" y="-32" type="pin p" />
        <line x2="384" y1="-32" y2="-32" x1="320" />
    </graph>
</symbol>
