verilog work "AddSub1b.vf"
verilog work "myOr2b4.vf"
verilog work "myAnd2b4.vf"
verilog work "Mux4to14b.vf"
verilog work "MUX4TO1.vf"
verilog work "AddSub4b.vf"
verilog work "myALU.vf"
verilog work "C:/Xilinx/14.7/ISE_DS/ISE//verilog/src/glbl.v"
