<?xml version="1.0" encoding="UTF-8"?>
<symbol version="7" name="CLA">
    <symboltype>BLOCK</symboltype>
    <timestamp>2017-11-26T19:15:1</timestamp>
    <pin polarity="Input" x="0" y="-480" name="G3" />
    <pin polarity="Input" x="0" y="-416" name="P3" />
    <pin polarity="Input" x="0" y="-352" name="G2" />
    <pin polarity="Input" x="0" y="-288" name="P2" />
    <pin polarity="Input" x="384" y="-480" name="G1" />
    <pin polarity="Input" x="0" y="-224" name="P1" />
    <pin polarity="Input" x="0" y="-160" name="G0" />
    <pin polarity="Input" x="0" y="-96" name="P0" />
    <pin polarity="Input" x="0" y="32" name="Ci" />
    <pin polarity="Output" x="384" y="-400" name="C1" />
    <pin polarity="Output" x="384" y="-320" name="C2" />
    <pin polarity="Output" x="384" y="-240" name="C3" />
    <pin polarity="Output" x="384" y="-160" name="GP" />
    <pin polarity="Output" x="384" y="-80" name="GG" />
    <graph>
        <attrtext style="alignment:BCENTER;fontsize:56;fontname:Arial" attrname="SymbolName" x="192" y="-520" type="symbol" />
        <attrtext style="fontsize:24;fontname:Arial" attrname="PinName" x="72" y="-480" type="pin G3" />
        <attrtext style="fontsize:24;fontname:Arial" attrname="PinName" x="72" y="-416" type="pin P3" />
        <attrtext style="fontsize:24;fontname:Arial" attrname="PinName" x="72" y="-352" type="pin G2" />
        <attrtext style="fontsize:24;fontname:Arial" attrname="PinName" x="72" y="-288" type="pin P2" />
        <attrtext style="alignment:RIGHT;fontsize:24;fontname:Arial" attrname="PinName" x="312" y="-480" type="pin G1" />
        <attrtext style="fontsize:24;fontname:Arial" attrname="PinName" x="72" y="-224" type="pin P1" />
        <attrtext style="fontsize:24;fontname:Arial" attrname="PinName" x="72" y="-160" type="pin G0" />
        <attrtext style="fontsize:24;fontname:Arial" attrname="PinName" x="72" y="-96" type="pin P0" />
        <attrtext style="fontsize:24;fontname:Arial" attrname="PinName" x="72" y="32" type="pin Ci" />
        <attrtext style="alignment:RIGHT;fontsize:24;fontname:Arial" attrname="PinName" x="312" y="-400" type="pin C1" />
        <attrtext style="alignment:RIGHT;fontsize:24;fontname:Arial" attrname="PinName" x="312" y="-320" type="pin C2" />
        <attrtext style="alignment:RIGHT;fontsize:24;fontname:Arial" attrname="PinName" x="312" y="-240" type="pin C3" />
        <attrtext style="alignment:RIGHT;fontsize:24;fontname:Arial" attrname="PinName" x="312" y="-160" type="pin GP" />
        <attrtext style="alignment:RIGHT;fontsize:24;fontname:Arial" attrname="PinName" x="312" y="-80" type="pin GG" />
        <line x2="0" y1="32" y2="32" x1="64" />
        <line x2="0" y1="-480" y2="-480" x1="64" />
        <line x2="0" y1="-416" y2="-416" x1="64" />
        <line x2="0" y1="-352" y2="-352" x1="64" />
        <line x2="0" y1="-288" y2="-288" x1="64" />
        <line x2="0" y1="-224" y2="-224" x1="64" />
        <line x2="0" y1="-160" y2="-160" x1="64" />
        <line x2="0" y1="-96" y2="-96" x1="64" />
        <line x2="384" y1="-480" y2="-480" x1="320" />
        <line x2="384" y1="-400" y2="-400" x1="320" />
        <line x2="384" y1="-320" y2="-320" x1="320" />
        <line x2="384" y1="-240" y2="-240" x1="320" />
        <line x2="384" y1="-160" y2="-160" x1="320" />
        <line x2="384" y1="-80" y2="-80" x1="320" />
        <rect width="256" x="64" y="-512" height="576" />
    </graph>
</symbol>
