<?xml version="1.0" encoding="UTF-8"?>
<symbol version="7" name="GPIO">
    <symboltype>BLOCK</symboltype>
    <timestamp>2017-11-19T11:57:15</timestamp>
    <attr value="GPIO" name="VeriModel" />
    <pin polarity="Input" x="0" y="-288" name="clk" />
    <pin polarity="Input" x="0" y="-224" name="rst" />
    <pin polarity="Input" x="0" y="-160" name="Start" />
    <pin polarity="Input" x="0" y="-96" name="EN" />
    <pin polarity="Input" x="0" y="-32" name="P_Data(31:0)" />
    <pin polarity="Output" x="432" y="-288" name="led_clk" />
    <pin polarity="Output" x="432" y="-224" name="led_sout" />
    <pin polarity="Output" x="432" y="-160" name="led_clrn" />
    <pin polarity="Output" x="432" y="-96" name="LED_PEN" />
    <pin polarity="Output" x="432" y="-32" name="GPIOf0(31:0)" />
    <graph>
        <attrtext style="alignment:BCENTER;fontsize:56;fontname:Arial" attrname="SymbolName" x="216" y="-328" type="symbol" />
        <attrtext style="fontsize:24;fontname:Arial" attrname="PinName" x="72" y="-288" type="pin clk" />
        <attrtext style="fontsize:24;fontname:Arial" attrname="PinName" x="72" y="-224" type="pin rst" />
        <attrtext style="fontsize:24;fontname:Arial" attrname="PinName" x="72" y="-160" type="pin Start" />
        <attrtext style="fontsize:24;fontname:Arial" attrname="PinName" x="72" y="-96" type="pin EN" />
        <attrtext style="fontsize:24;fontname:Arial" attrname="PinName" x="72" y="-32" type="pin P_Data(31:0)" />
        <attrtext style="alignment:RIGHT;fontsize:24;fontname:Arial" attrname="PinName" x="360" y="-288" type="pin led_clk" />
        <attrtext style="alignment:RIGHT;fontsize:24;fontname:Arial" attrname="PinName" x="360" y="-224" type="pin led_sout" />
        <attrtext style="alignment:RIGHT;fontsize:24;fontname:Arial" attrname="PinName" x="360" y="-160" type="pin led_clrn" />
        <attrtext style="alignment:RIGHT;fontsize:24;fontname:Arial" attrname="PinName" x="360" y="-96" type="pin LED_PEN" />
        <attrtext style="alignment:RIGHT;fontsize:24;fontname:Arial" attrname="PinName" x="360" y="-32" type="pin GPIOf0(31:0)" />
        <rect width="304" x="64" y="-320" height="320" />
        <line x2="0" y1="-288" y2="-288" x1="64" />
        <line x2="0" y1="-224" y2="-224" x1="64" />
        <line x2="0" y1="-160" y2="-160" x1="64" />
        <line x2="0" y1="-96" y2="-96" x1="64" />
        <rect width="64" x="0" y="-44" height="24" />
        <line x2="0" y1="-32" y2="-32" x1="64" />
        <line x2="432" y1="-288" y2="-288" x1="368" />
        <line x2="432" y1="-224" y2="-224" x1="368" />
        <line x2="432" y1="-160" y2="-160" x1="368" />
        <line x2="432" y1="-96" y2="-96" x1="368" />
        <rect width="64" x="368" y="-44" height="24" />
        <line x2="432" y1="-32" y2="-32" x1="368" />
    </graph>
</symbol>
