<?xml version="1.0" encoding="UTF-8"?>
<symbol version="7" name="MUX4T1">
    <symboltype>BLOCK</symboltype>
    <timestamp>2017-11-22T7:3:15</timestamp>
    <pin polarity="Input" x="0" y="-288" name="s(1:0)" />
    <pin polarity="Input" x="0" y="-224" name="I0(3:0)" />
    <pin polarity="Input" x="0" y="-160" name="I1(3:0)" />
    <pin polarity="Input" x="0" y="-96" name="I2(3:0)" />
    <pin polarity="Input" x="0" y="-32" name="I3(3:0)" />
    <pin polarity="Output" x="384" y="-288" name="O(3:0)" />
    <graph>
        <attrtext style="alignment:BCENTER;fontsize:56;fontname:Arial" attrname="SymbolName" x="192" y="-328" type="symbol" />
        <attrtext style="fontsize:24;fontname:Arial" attrname="PinName" x="72" y="-288" type="pin s(1:0)" />
        <attrtext style="fontsize:24;fontname:Arial" attrname="PinName" x="72" y="-224" type="pin I0(3:0)" />
        <attrtext style="fontsize:24;fontname:Arial" attrname="PinName" x="72" y="-160" type="pin I1(3:0)" />
        <attrtext style="fontsize:24;fontname:Arial" attrname="PinName" x="72" y="-96" type="pin I2(3:0)" />
        <attrtext style="fontsize:24;fontname:Arial" attrname="PinName" x="72" y="-32" type="pin I3(3:0)" />
        <attrtext style="alignment:RIGHT;fontsize:24;fontname:Arial" attrname="PinName" x="312" y="-288" type="pin O(3:0)" />
        <rect width="256" x="64" y="-320" height="320" />
        <rect width="64" x="0" y="-300" height="24" />
        <line x2="0" y1="-288" y2="-288" x1="64" />
        <rect width="64" x="0" y="-236" height="24" />
        <line x2="0" y1="-224" y2="-224" x1="64" />
        <rect width="64" x="0" y="-172" height="24" />
        <line x2="0" y1="-160" y2="-160" x1="64" />
        <rect width="64" x="0" y="-108" height="24" />
        <line x2="0" y1="-96" y2="-96" x1="64" />
        <rect width="64" x="0" y="-44" height="24" />
        <line x2="0" y1="-32" y2="-32" x1="64" />
        <rect width="64" x="320" y="-300" height="24" />
        <line x2="384" y1="-288" y2="-288" x1="320" />
    </graph>
</symbol>
