<?xml version="1.0" encoding="UTF-8"?>
<symbol version="7" name="MUX8T1_32">
    <symboltype>BLOCK</symboltype>
    <timestamp>2017-11-27T11:0:1</timestamp>
    <pin polarity="Input" x="0" y="-544" name="I0(31:0)" />
    <pin polarity="Input" x="0" y="-480" name="I7(31:0)" />
    <pin polarity="Input" x="0" y="-416" name="I1(31:0)" />
    <pin polarity="Input" x="0" y="-352" name="I2(31:0)" />
    <pin polarity="Input" x="0" y="-288" name="I3(31:0)" />
    <pin polarity="Input" x="0" y="-224" name="I6(31:0)" />
    <pin polarity="Input" x="0" y="-160" name="I5(31:0)" />
    <pin polarity="Input" x="0" y="-96" name="I4(31:0)" />
    <pin polarity="Input" x="0" y="-32" name="S(2:0)" />
    <pin polarity="Output" x="384" y="-544" name="O(31:0)" />
    <graph>
        <rect width="256" x="64" y="-576" height="576" />
        <attrtext style="alignment:BCENTER;fontsize:56;fontname:Arial" attrname="SymbolName" x="192" y="-584" type="symbol" />
        <attrtext style="fontsize:24;fontname:Arial" attrname="PinName" x="72" y="-544" type="pin I0(31:0)" />
        <rect width="64" x="0" y="-556" height="24" />
        <line x2="0" y1="-544" y2="-544" x1="64" />
        <attrtext style="fontsize:24;fontname:Arial" attrname="PinName" x="72" y="-480" type="pin I7(31:0)" />
        <rect width="64" x="0" y="-492" height="24" />
        <line x2="0" y1="-480" y2="-480" x1="64" />
        <attrtext style="fontsize:24;fontname:Arial" attrname="PinName" x="72" y="-416" type="pin I1(31:0)" />
        <rect width="64" x="0" y="-428" height="24" />
        <line x2="0" y1="-416" y2="-416" x1="64" />
        <attrtext style="fontsize:24;fontname:Arial" attrname="PinName" x="72" y="-352" type="pin I2(31:0)" />
        <rect width="64" x="0" y="-364" height="24" />
        <line x2="0" y1="-352" y2="-352" x1="64" />
        <attrtext style="fontsize:24;fontname:Arial" attrname="PinName" x="72" y="-288" type="pin I3(31:0)" />
        <rect width="64" x="0" y="-300" height="24" />
        <line x2="0" y1="-288" y2="-288" x1="64" />
        <attrtext style="fontsize:24;fontname:Arial" attrname="PinName" x="72" y="-224" type="pin I6(31:0)" />
        <rect width="64" x="0" y="-236" height="24" />
        <line x2="0" y1="-224" y2="-224" x1="64" />
        <attrtext style="fontsize:24;fontname:Arial" attrname="PinName" x="72" y="-160" type="pin I5(31:0)" />
        <rect width="64" x="0" y="-172" height="24" />
        <line x2="0" y1="-160" y2="-160" x1="64" />
        <attrtext style="fontsize:24;fontname:Arial" attrname="PinName" x="72" y="-96" type="pin I4(31:0)" />
        <rect width="64" x="0" y="-108" height="24" />
        <line x2="0" y1="-96" y2="-96" x1="64" />
        <attrtext style="fontsize:24;fontname:Arial" attrname="PinName" x="72" y="-32" type="pin S(2:0)" />
        <rect width="64" x="0" y="-44" height="24" />
        <line x2="0" y1="-32" y2="-32" x1="64" />
        <attrtext style="alignment:RIGHT;fontsize:24;fontname:Arial" attrname="PinName" x="312" y="-544" type="pin O(31:0)" />
        <rect width="64" x="320" y="-556" height="24" />
        <line x2="384" y1="-544" y2="-544" x1="320" />
    </graph>
</symbol>
