<?xml version="1.0" encoding="UTF-8"?>
<symbol version="7" name="ALU">
    <symboltype>BLOCK</symboltype>
    <timestamp>2018-5-26T15:33:29</timestamp>
    <attr value="ALU" name="VeriModel" />
    <pin polarity="Input" x="0" y="-160" name="ins(2:0)" />
    <pin polarity="Input" x="0" y="-96" name="A(31:0)" />
    <pin polarity="Input" x="0" y="-32" name="B(31:0)" />
    <pin polarity="Output" x="384" y="-160" name="Z" />
    <pin polarity="Output" x="384" y="-32" name="O(31:0)" />
    <graph>
        <rect width="256" x="64" y="-192" height="192" />
        <attrtext style="alignment:BCENTER;fontsize:56;fontname:Arial" attrname="SymbolName" x="192" y="-200" type="symbol" />
        <attrtext style="fontsize:24;fontname:Arial" attrname="PinName" x="72" y="-160" type="pin ins(2:0)" />
        <rect width="64" x="0" y="-172" height="24" />
        <line x2="0" y1="-160" y2="-160" x1="64" />
        <attrtext style="fontsize:24;fontname:Arial" attrname="PinName" x="72" y="-96" type="pin A(31:0)" />
        <rect width="64" x="0" y="-108" height="24" />
        <line x2="0" y1="-96" y2="-96" x1="64" />
        <attrtext style="fontsize:24;fontname:Arial" attrname="PinName" x="72" y="-32" type="pin B(31:0)" />
        <rect width="64" x="0" y="-44" height="24" />
        <line x2="0" y1="-32" y2="-32" x1="64" />
        <attrtext style="alignment:RIGHT;fontsize:24;fontname:Arial" attrname="PinName" x="312" y="-160" type="pin Z" />
        <line x2="384" y1="-160" y2="-160" x1="320" />
        <attrtext style="alignment:RIGHT;fontsize:24;fontname:Arial" attrname="PinName" x="312" y="-32" type="pin O(31:0)" />
        <rect width="64" x="320" y="-44" height="24" />
        <line x2="384" y1="-32" y2="-32" x1="320" />
    </graph>
</symbol>
