00000000000000000100000000100000
00000000000000001000000000100000
00100000000100010000000000001010
00000001000100010100100000101010
00010001001000000000000000010000
00000001000010000100100000100000
00000001001010010100100000100000
00100001001010010000000001100100
10001101001010010000000000000000
10101100000010010000000011001000
00000010000010011000000000100000
00100001000010000000000000000001
00001000000000000000000000000011
10101100000100000000000011001000
