<?xml version="1.0" encoding="UTF-8"?>
<symbol version="7" name="ShiftLeft_2b">
    <symboltype>BLOCK</symboltype>
    <timestamp>2018-5-26T15:42:32</timestamp>
    <attr value="ShiftLeft_2b" name="VeriModel" />
    <pin polarity="Input" x="0" y="-32" name="A(31:0)" />
    <pin polarity="Output" x="384" y="-32" name="B(31:0)" />
    <graph>
        <rect width="256" x="64" y="-64" height="64" />
        <attrtext style="alignment:BCENTER;fontsize:56;fontname:Arial" attrname="SymbolName" x="192" y="-72" type="symbol" />
        <attrtext style="fontsize:24;fontname:Arial" attrname="PinName" x="72" y="-32" type="pin A(31:0)" />
        <rect width="64" x="0" y="-44" height="24" />
        <line x2="0" y1="-32" y2="-32" x1="64" />
        <attrtext style="alignment:RIGHT;fontsize:24;fontname:Arial" attrname="PinName" x="312" y="-32" type="pin B(31:0)" />
        <rect width="64" x="320" y="-44" height="24" />
        <line x2="384" y1="-32" y2="-32" x1="320" />
    </graph>
</symbol>
